2018-09-11T07:19:12+00:00 CRITICAL Uncaught ArgumentCountError: Too few arguments to function wp_nonce_url(), 0 passed in D:\XAMPP\htdocs\greenfarm\wp-content\themes\greenfarm\functions.php on line 622 and at least 1 expected in D:\XAMPP\htdocs\greenfarm\wp-includes\functions.php:1437
Stack trace:
#0 D:\XAMPP\htdocs\greenfarm\wp-content\themes\greenfarm\functions.php(622): wp_nonce_url()
#1 D:\XAMPP\htdocs\greenfarm\wp-includes\class-wp-hook.php(286): Greenfarm_Class->greenfarm_scripts_styles('')
#2 D:\XAMPP\htdocs\greenfarm\wp-includes\class-wp-hook.php(310): WP_Hook->apply_filters(NULL, Array)
#3 D:\XAMPP\htdocs\greenfarm\wp-includes\plugin.php(453): WP_Hook->do_action(Array)
#4 D:\XAMPP\htdocs\greenfarm\wp-includes\script-loader.php(1447): do_action('wp_enqueue_scri...')
#5 D:\XAMPP\htdocs\greenfarm\wp-includes\class-wp-hook.php(286): wp_enqueue_scripts('')
#6 D:\XAMPP\htdocs\greenfarm\wp-includes\class-wp-hook.php(310): WP_Hook->apply_filters(NULL, Array)
#7 D:\XAMPP\htdocs\greenfarm\wp-includes\plugin.php(453): WP_Hook->do_action(Array)
#

